{
	"parent": "block/block",
	"textures": {
		"0": "portalstuff:blocks/floor_button_base_down",
		"2": "portalstuff:blocks/floor_button_base_up",
		"particle": "portalstuff:blocks/floor_button_base_down"
	},
	"elements": [
		{
			"name": "cube",
			"from": [5, 0, 0],
			"to": [11, 1, 16],
			"shade": true,
			"faces": {
				"north": {"uv": [0, 0, 6, 16], "texture": "#0"},
				"east": {"uv": [0, 0, 6, 16], "texture": "#0"},
				"south": {"uv": [0, 0, 6, 16], "texture": "#0"},
				"west": {"uv": [0, 0, 6, 16], "texture": "#0"},
				"up": {"uv": [0, 0, 6, 16], "texture": "#0"},
				"down": {"uv": [0, 0, 6, 16], "texture": "#0"}
			}
		},
		{
			"name": "cube",
			"from": [0, -0.25, 5],
			"to": [16, 0.875, 11],
			"shade": true,
			"faces": {
				"north": {"uv": [0, 0, 16, 1.125], "texture": "#0"},
				"east": {"uv": [0, 0, 6, 1.125], "texture": "#0"},
				"south": {"uv": [0, 0, 16, 1.125], "texture": "#0"},
				"west": {"uv": [0, 0, 6, 1.125], "texture": "#0"},
				"up": {"uv": [0, 0, 16, 6], "texture": "#0"},
				"down": {"uv": [0, 0, 16, 6], "texture": "#0"}
			}
		},
		{
			"name": "cube",
			"from": [1.75, 0, 1.75],
			"to": [13.25, 1, 13.25],
			"shade": true,
			"faces": {
				"north": {"uv": [0, 0, 11.5, 11.5], "texture": "#0"},
				"east": {"uv": [0, 0, 11.5, 11.5], "texture": "#0"},
				"south": {"uv": [0, 0, 11.5, 11.5], "texture": "#0"},
				"west": {"uv": [0, 0, 11.5, 11.5], "texture": "#0"},
				"up": {"uv": [0, 0, 11.5, 11.5], "texture": "#0"},
				"down": {"uv": [0, 0, 11.5, 11.5], "texture": "#0"}
			}
		},
		{
			"name": "cube",
			"from": [5, 1, 2],
			"to": [11, 2, 3],
			"shade": true,
			"faces": {
				"north": {"uv": [0, 0, 6, 1], "texture": "#0"},
				"east": {"uv": [0, 0, 6, 1], "texture": "#0"},
				"south": {"uv": [0, 0, 6, 1], "texture": "#0"},
				"west": {"uv": [0, 0, 6, 1], "texture": "#0"},
				"up": {"uv": [0, 0, 6, 1], "texture": "#0"},
				"down": {"uv": [0, 0, 6, 1], "texture": "#0"}
			}
		},
		{
			"name": "cube",
			"from": [5, 1, 13],
			"to": [11, 2, 14],
			"shade": true,
			"faces": {
				"north": {"uv": [0, 0, 6, 1], "texture": "#0"},
				"east": {"uv": [0, 0, 6, 1], "texture": "#0"},
				"south": {"uv": [0, 0, 6, 1], "texture": "#0"},
				"west": {"uv": [0, 0, 6, 1], "texture": "#0"},
				"up": {"uv": [0, 0, 6, 1], "texture": "#0"},
				"down": {"uv": [0, 0, 6, 1], "texture": "#0"}
			}
		},
		{
			"name": "cube",
			"from": [2, 1, 5],
			"to": [3, 2, 11],
			"shade": true,
			"faces": {
				"north": {"uv": [0, 0, 2, 0.5], "texture": "#0"},
				"east": {"uv": [0, 0, 2, 0.5], "texture": "#0"},
				"south": {"uv": [0, 0, 2, 0.5], "texture": "#0"},
				"west": {"uv": [0, 0, 2, 0.5], "texture": "#0"},
				"up": {"uv": [0, 0, 2, 0.5], "texture": "#0"},
				"down": {"uv": [0, 0, 2, 0.5], "texture": "#0"}
			}
		},
		{
			"name": "cube",
			"from": [13, 1, 5],
			"to": [14, 2, 11],
			"shade": true,
			"faces": {
				"north": {"uv": [0, 0, 1, 6], "texture": "#0"},
				"east": {"uv": [0, 0, 1, 6], "texture": "#0"},
				"south": {"uv": [0, 0, 1, 6], "texture": "#0"},
				"west": {"uv": [0, 0, 1, 6], "texture": "#0"},
				"up": {"uv": [0, 0, 1, 6], "texture": "#0"},
				"down": {"uv": [0, 0, 1, 6], "texture": "#0"}
			}
		},
		{
			"name": "cube",
			"from": [7, -0.125, -0.5],
			"to": [9, 0.375, 16.5],
			"shade": true,
			"faces": {
				"north": {"uv": [0, 0, 2, 0.5], "texture": "#0"},
				"east": {"uv": [0, 0, 2, 0.5], "texture": "#0"},
				"south": {"uv": [0, 0, 2, 0.5], "texture": "#0"},
				"west": {"uv": [0, 0, 2, 0.5], "texture": "#0"},
				"up": {"uv": [0, 0, 2, 0.5], "texture": "#0"},
				"down": {"uv": [0, 0, 2, 0.5], "texture": "#0"}
			}
		},
		{
			"name": "cube",
			"from": [4, -0.125, 1],
			"to": [12, 0.625, 15],
			"shade": true,
			"faces": {
				"north": {"uv": [0, 0, 14, 0.75], "texture": "#0"},
				"east": {"uv": [0, 0, 14, 0.75], "texture": "#0"},
				"south": {"uv": [0, 0, 14, 0.75], "texture": "#0"},
				"west": {"uv": [0, 0, 14, 0.75], "texture": "#0"},
				"up": {"uv": [0, 0, 14, 0.75], "texture": "#0"},
				"down": {"uv": [0, 0, 14, 0.75], "texture": "#0"}
			}
		},
		{
			"name": "cube",
			"from": [1, 0, 4],
			"to": [15, 0.75, 12],
			"shade": true,
			"faces": {
				"north": {"uv": [0, 0, 14, 8], "texture": "#0"},
				"east": {"uv": [0, 0, 14, 8], "texture": "#0"},
				"south": {"uv": [0, 0, 14, 8], "texture": "#0"},
				"west": {"uv": [0, 0, 14, 8], "texture": "#0"},
				"up": {"uv": [0, 0, 14, 8], "texture": "#0"},
				"down": {"uv": [0, 0, 14, 8], "texture": "#0"}
			}
		},
		{
			"name": "cube",
			"from": [3, 1, 4],
			"to": [4, 2, 5],
			"shade": true,
			"faces": {
				"north": {"uv": [0, 0, 1, 1], "texture": "#0"},
				"east": {"uv": [0, 0, 1, 1], "texture": "#0"},
				"south": {"uv": [0, 0, 1, 1], "texture": "#0"},
				"west": {"uv": [0, 0, 1, 1], "texture": "#0"},
				"up": {"uv": [0, 0, 1, 1], "texture": "#0"},
				"down": {"uv": [0, 0, 1, 1], "texture": "#0"}
			}
		},
		{
			"name": "cube",
			"from": [4, 1, 3],
			"to": [5, 2, 4],
			"shade": true,
			"faces": {
				"north": {"uv": [0, 0, 1, 1], "texture": "#0"},
				"east": {"uv": [0, 0, 1, 1], "texture": "#0"},
				"south": {"uv": [0, 0, 1, 1], "texture": "#0"},
				"west": {"uv": [0, 0, 1, 1], "texture": "#0"},
				"up": {"uv": [0, 0, 1, 1], "texture": "#0"},
				"down": {"uv": [0, 0, 1, 1], "texture": "#0"}
			}
		},
		{
			"name": "cube",
			"from": [12, 1, 4],
			"to": [13, 2, 5],
			"shade": true,
			"faces": {
				"north": {"uv": [0, 0, 1, 1], "texture": "#0"},
				"east": {"uv": [0, 0, 1, 1], "texture": "#0"},
				"south": {"uv": [0, 0, 1, 1], "texture": "#0"},
				"west": {"uv": [0, 0, 1, 1], "texture": "#0"},
				"up": {"uv": [0, 0, 1, 1], "texture": "#0"},
				"down": {"uv": [0, 0, 1, 1], "texture": "#0"}
			}
		},
		{
			"name": "cube",
			"from": [11, 1, 3],
			"to": [12, 2, 4],
			"shade": true,
			"faces": {
				"north": {"uv": [0, 0, 1, 1], "texture": "#0"},
				"east": {"uv": [0, 0, 1, 1], "texture": "#0"},
				"south": {"uv": [0, 0, 1, 1], "texture": "#0"},
				"west": {"uv": [0, 0, 1, 1], "texture": "#0"},
				"up": {"uv": [0, 0, 1, 1], "texture": "#0"},
				"down": {"uv": [0, 0, 1, 1], "texture": "#0"}
			}
		},
		{
			"name": "cube",
			"from": [11, 1, 12],
			"to": [12, 2, 13],
			"shade": true,
			"faces": {
				"north": {"uv": [0, 0, 1, 1], "texture": "#0"},
				"east": {"uv": [0, 0, 1, 1], "texture": "#0"},
				"south": {"uv": [0, 0, 1, 1], "texture": "#0"},
				"west": {"uv": [0, 0, 1, 1], "texture": "#0"},
				"up": {"uv": [0, 0, 1, 1], "texture": "#0"},
				"down": {"uv": [0, 0, 1, 1], "texture": "#0"}
			}
		},
		{
			"name": "cube",
			"from": [12, 1, 11],
			"to": [13, 2, 12],
			"shade": true,
			"faces": {
				"north": {"uv": [0, 0, 1, 1], "texture": "#0"},
				"east": {"uv": [0, 0, 1, 1], "texture": "#0"},
				"south": {"uv": [0, 0, 1, 1], "texture": "#0"},
				"west": {"uv": [0, 0, 1, 1], "texture": "#0"},
				"up": {"uv": [0, 0, 1, 1], "texture": "#0"},
				"down": {"uv": [0, 0, 1, 1], "texture": "#0"}
			}
		},
		{
			"name": "cube",
			"from": [4, 1, 12],
			"to": [5, 2, 13],
			"shade": true,
			"faces": {
				"north": {"uv": [0, 0, 1, 1], "texture": "#0"},
				"east": {"uv": [0, 0, 1, 1], "texture": "#0"},
				"south": {"uv": [0, 0, 1, 1], "texture": "#0"},
				"west": {"uv": [0, 0, 1, 1], "texture": "#0"},
				"up": {"uv": [0, 0, 1, 1], "texture": "#0"},
				"down": {"uv": [0, 0, 1, 1], "texture": "#0"}
			}
		},
		{
			"name": "cube",
			"from": [3, 1, 11],
			"to": [4, 2, 12],
			"shade": true,
			"faces": {
				"north": {"uv": [0, 0, 1, 1], "texture": "#0"},
				"east": {"uv": [0, 0, 1, 1], "texture": "#0"},
				"south": {"uv": [0, 0, 1, 1], "texture": "#0"},
				"west": {"uv": [0, 0, 1, 1], "texture": "#0"},
				"up": {"uv": [0, 0, 1, 1], "texture": "#0"},
				"down": {"uv": [0, 0, 1, 1], "texture": "#0"}
			}
		},
		{
			"name": "redplate",
			"from": [5, 2, 3],
			"to": [11, 2.625, 4],
			"shade": true,
			"faces": {
				"north": {"uv": [5, 3, 11, 4], "texture": "#2"},
				"east": {"uv": [5, 3, 11, 4], "texture": "#2"},
				"south": {"uv": [5, 3, 11, 4], "texture": "#2"},
				"west": {"uv": [5, 3, 11, 4], "texture": "#2"},
				"up": {"uv": [5, 3, 11, 4], "texture": "#2"},
				"down": {"uv": [5, 3, 11, 4], "texture": "#2"}
			}
		},
		{
			"name": "redplate",
			"from": [3, 2, 5],
			"to": [4, 2.625, 11],
			"shade": true,
			"faces": {
				"north": {"uv": [3, 5, 4, 11], "texture": "#2"},
				"east": {"uv": [3, 5, 4, 11], "texture": "#2"},
				"south": {"uv": [3, 5, 4, 11], "texture": "#2"},
				"west": {"uv": [3, 5, 4, 11], "texture": "#2"},
				"up": {"uv": [3, 5, 4, 11], "texture": "#2"},
				"down": {"uv": [3, 5, 4, 11], "texture": "#2"}
			}
		},
		{
			"name": "redplate",
			"from": [12, 2, 5],
			"to": [13, 2.625, 11],
			"shade": true,
			"faces": {
				"north": {"uv": [3, 5, 4, 11], "texture": "#2"},
				"east": {"uv": [3, 5, 4, 11], "texture": "#2"},
				"south": {"uv": [3, 5, 4, 11], "texture": "#2"},
				"west": {"uv": [3, 5, 4, 11], "texture": "#2"},
				"up": {"uv": [3, 5, 4, 11], "texture": "#2"},
				"down": {"uv": [3, 5, 4, 11], "texture": "#2"}
			}
		},
		{
			"name": "redplate",
			"from": [4, 2, 4],
			"to": [12, 2.625, 12],
			"shade": true,
			"faces": {
				"north": {"uv": [4, 4, 12, 12], "texture": "#2"},
				"east": {"uv": [4, 4, 12, 12], "texture": "#2"},
				"south": {"uv": [4, 4, 12, 12], "texture": "#2"},
				"west": {"uv": [4, 4, 12, 12], "texture": "#2"},
				"up": {"uv": [4, 4, 12, 12], "texture": "#2"},
				"down": {"uv": [4, 4, 12, 12], "texture": "#2"}
			}
		},
		{
			"name": "redplate",
			"from": [5, 2, 12],
			"to": [11, 2.625, 13],
			"shade": true,
			"faces": {
				"north": {"uv": [5, 12, 11, 13], "texture": "#2"},
				"east": {"uv": [5, 12, 11, 13], "texture": "#2"},
				"south": {"uv": [5, 12, 11, 13], "texture": "#2"},
				"west": {"uv": [5, 12, 11, 13], "texture": "#2"},
				"up": {"uv": [5, 12, 11, 13], "texture": "#2"},
				"down": {"uv": [5, 12, 11, 13], "texture": "#2"}
			}
		}
	]
}